…
    ## [1] 9

There are 9 potentially problematic city names for our application.

``` r
# explore incomplete entries
# identify annual reports with less than 12 months reported
crime %>% 
  filter(months_reported < 12) %>% 
  select(ORI, months_reported)
```

    ## # A tibble: 53 x 2
    ##    ORI     months_reported
    ##    <chr>             <dbl>
    ##  1 FL01300              11
    ##  2 NY05101               9
    ##  3 TXHPD00              10
    ##  4 NY01401              10
    ##  5 VA02901              11
    ##  6 TXHPD00               9
    ##  7 NY05101               7
    ##  8 NY05101               8
    ##  9 NY02900              11
    ## 10 NY05101              11
    ## # ... with 43 more rows

There are 53 annual reports with less than 12 months reported.

``` r
# tentative attempt at removing problematic entries
# at worst case, we are removing all incomplete annual reports
# at worst case, we are removing all potentially problematic city names
crime %>% 
  filter(months_reported == 12, !department_name %in% bad_names)
```

    ## # A tibble: 2,348 x 17
    ##    ORI    year department_name total_pop homs_sum rape_sum rob_sum
    ##    <chr> <dbl> <chr>               <dbl>    <dbl>    <dbl>   <dbl>
    ##  1 NM00…  1975 Albuquerque, N…    286238       30      181     819
    ##  2 TX22…  1975 Arlington, Tex…    112478        5       28     113
    ##  3 GAAP…  1975 Atlanta            490584      185      443    3887
    ##  4 CO00…  1975 Aurora, Colo.      116656        7       44     171
    ##  5 TX22…  1975 Austin, Texas      300400       33      190     529
    ##  6 MDBP…  1975 Baltimore          864100      259      463    9055
    ##  7 MA01…  1975 Boston             616120      119      453    7778
    ##  8 NY01…  1975 Buffalo, N.Y.      422276       63      192    2340
    ##  9 NC06…  1975 Charlotte-Meck…    262103       68       71     822
    ## 10 ILCP…  1975 Chicago           3150000      818     1657   22171
    ## # ... with 2,338 more rows, and 10 more variables: agg_ass_sum <dbl>,
    ## #   violent_crime <dbl>, months_reported <dbl>, violent_per_100k <dbl>,
    ## #   homs_per_100k <dbl>, rape_per_100k <dbl>, rob_per_100k <dbl>,
    ## #   agg_ass_per_100k <dbl>, source <chr>, url <chr>
…
